INDEX VERSION 1.130+C:\Users\Lavanya\Desktop\cookify1\Springboot\.metadata\.plugins\org.eclipse.jdt.core
2711944827.index
1760894036.index
273030411.index
4167251700.index
2291110970.index
1483387672.index
3548663868.index
53646595.index
282934069.index
218669550.index
770736476.index
1849911628.index
1961815414.index
2206635604.index
21613891.index
3620883540.index
2241916994.index
1975439361.index
2885606711.index
733336426.index
683376066.index
436172165.index
2186184508.index
1956904976.index
147532411.index
1666292540.index
3183441493.index
2666486699.index
2921768826.index
2017028620.index
59445898.index
1148341541.index
3357829859.index
3644761064.index
2260832442.index
3469783776.index
2008135393.index
1464158379.index
1890298273.index
542153213.index
391097393.index
3801499417.index
895354549.index
2267154874.index
2205283528.index
2670488289.index
288922485.index
4138326577.index
1946725198.index
3436065128.index
3720333217.index
891244201.index
4174723198.index
3863653476.index
38803618.index
4073496073.index
2066830214.index
2348266061.index
3629748407.index
3348520720.index
4135958314.index
3401896547.index
2494769905.index
1569682165.index
3961193596.index
1612392130.index
278677510.index
1482275447.index
1161699072.index
745165291.index
3004955795.index
425738585.index
4248105405.index
1004758958.index
340059147.index
4044918937.index
3380023688.index
3402249996.index
3201349767.index
3718012083.index
2507423472.index
1984081570.index
2160998211.index
2727692577.index
1565688479.index
3455028872.index
33811618.index
3040837599.index
2607233988.index
3824787218.index
673815186.index
2498659212.index
2914611699.index
1711720392.index
103378668.index
290021682.index
1888322566.index
4259073463.index
1588406170.index
3585828140.index
411227453.index
3778805488.index
1049661046.index
385641746.index
1538405086.index
3126360943.index
674573568.index
